sy7ho -1
xc77l -1
s7k5s +1
ltg4h +1
b4amr -1
p5cuw +1
s8bwl -1
vp1kn +1
c8xfz +1
ix2h7 +1
pnrvm -1
whaj4 +1
wixl5 +1
7gozb -1
dal8b -1
63c5j +1
xcqt7 -1
mx6mi -1
x1vjk -1
lchjm +1
7bud3 -1
chulc -1
5ajjs -1
hv14t -1
jgcgc -1
7tkol -1
pvscc -1
l3b4x +1
n4ugb +1
q1g53 +1
11j8s +1
3k17u -1
sk212 +1
r5lob -1
ajksy +1
xnwcc -1
qjrph -1
qgmsr -1
3gdsx -1
fy9yi +1
emtq2 +1
qh4cn +1
7l5hh -1
3l3d1 +1
h1sz3 +1
h2i68 -1
ezti5 -1
loh6y +1
fzeo7 -1
x92wp -1
pkz95 +1
2a7or -1
9ginc -1
clgfc -1
81ulb +1
c5pst -1
nqoo7 +1
v8aym +1
clp1v -1
pnwnm -1
5f3mp +1
hskrj +1
i39tr +1
fw3jf +1
tifyp +1
71xic +1
txp65 +1
1avo9 +1
vyoal +1
g2wts +1
vviyr +1
sllom +1
pk4vb -1
6rugy -1
xgawz -1
yhsl6 +1
7q7di +1
1rn6w -1
fs5su -1
0jxtt -1
b0h6v -1
rvu01 +1
eq5n0 -1
g826z -1
joamy +1
m0pf5 -1
lvtau -1
m4l3k +1
gdktv +1
lr8qp -1
q7mjn -1
1klj6 -1
jdclb +1
7eg8m +1
4cbar +1
fglz1 +1
ae7k4 -1
cb03p +1
tfq81 -1
dbpqv -1
r4s0t +1
fdf1a +1
1kd35 -1
eeif9 +1
ewxul -1
q29a8 -1
dhzff -1
hfmz7 +1
6hwzn +1
refxk +1
5o5ho -1
ftq0p +1
piwvc -1
j47a7 +1
7vc7m -1
l2xvb +1
1p88j +1
tgom8 +1
6nvx3 +1
gxu1o -1
z880w -1
z6hgv +1
gxnnb +1
vdka5 +1
zuxay -1
n85fz +1
7f3do +1
eysz1 +1
5h0n2 +1
u5t3e -1
z80ic +1
v380l +1
5ijmf +1
r59ye +1
wwfoi -1
ahew1 +1
xlo95 -1
g28cm -1
4zuqo -1
rluv2 +1
uqawx +1
6a9a3 +1
b2z6f -1
mt3qz +1
fl04t -1
9n1gg -1
8qhs1 -1
cb5sc +1
h0frj +1
7a98l -1
hrpfd +1
ohejw +1
4n1t8 +1
4e6om +1
375du +1
j9zkq +1
ca42n -1
46oxa +1
v1bjw -1
tpeew +1
75glm -1
baony -1
ul3bj +1
d9qbh +1
86vgz -1
wss77 +1
1e5d4 +1
ipb8t -1
a46kl -1
2no55 -1
e89hs +1
17r1e -1
fw3qu -1
owxh5 -1
qeqxi -1
k9du1 -1
ophd6 +1
72688 -1
3z9ch -1
qde4r +1
zovg1 +1
x8lo5 +1
1iubv -1
llkrn -1
z5276 -1
24m8h +1
sren3 -1
7v2xq +1
3ieba +1
0jbbi +1
cd7m5 -1
f4sxy -1
jwb2y +1
a12l0 -1
ee68q -1
w46wx -1
g4rnq +1
wjmvm +1
6hnfm -1
2ovp7 +1
